…
{% highlight r%}
  # gradient background grob
g <- grid::rasterGrob(c("#272822","black"), width=unit(1,"npc"), height = unit(1,"npc"), 
                      interpolate = TRUE) 
# custom text annotation
forsubtitle <- 
  tibble(label = "<span style = 'color: #0F58FF;'>**3988**</span> songs from <span style = 'color: #0F58FF;'>**21**</span> artists <br> <span style = 'color: #F95C09;'>**5022**</span> player names",
         x = 0.7, y = 35)
{% endhighlight %}

The data now looks like this:
{% highlight text %}
> allfreqsPL
# A tibble: 90 × 6
# Groups:   nr [8]
   namePlayerBREF          n  ncat nr     rank forticks
   <chr>               <int> <int> <fct> <int> <chr>   
 1 "Michael\nJordan"       9     1 9         1 9       
 2 "Scottie\nPippen"       8     1 8         2 8       
 3 "Shaquille\nO'Neal"     6     3 6         3 6       
 4 "Reggie\nMiller"        6     3 6         3 6       
 5 "LeBron James"          6     3 6         3 6       
 6 "Yao Ming"              5     6 5         4 5       
 7 "Steve Nash"            5     6 5         4 5       
 8 "Shawn Kemp"            5     6 5         4 5       
 9 "Paul Pierce"           5     6 5         4 5       
10 "Gilbert\nArenas"       5     6 5         4 5       
# … with 80 more rows  
…
artists_nPlayers <- 
  lyrsplyrs %>% distinct(artist_name,song_id,namePlayerBREF) %>% 
  group_by(artist_name) %>% 
  distinct(namePlayerBREF) %>% count(artist_name) %>% 
  arrange(desc(n))  
{% endhighlight %}

After some basic wrangling we get this two-column tibble with artists and the total number of players mentioned. 
  
{% highlight text%}
 artists_nPlayers
# A tibble: 21 × 2
# Groups:   artist_name [21]
   artist_name              n
   <chr>                <int>
 1 Migos                   67
 2 Ghostface Killah        28
 3 2 Chainz                16
 4 G-Unit                  14
 5 Beastie Boys            13
 6 Army of the Pharaohs    11
 7 Flatbush Zombies        10
 8 R.A. The Rugged Man      8
 9 Das EFX                  7
10 Jedi Mind Tricks         7
# … with 11 more rows  
…
