…
Finally, we can use purrr to iterate through all the files in a folder and apply the custom function. Note the new recommended approach of using list_rbind rather than map_df.


{% highlight r %}
map(allpaths,\(x) filenameTovars(x,
  var_names = c("ctry_origin","year","drivetrain"))) |> 
  list_rbind() |> type_convert() 
{% endhighlight %}


Our output is essentially the same `gtcars` object we started with. 

{% highlight text %}
# A tibble: 47 × 15
   mfr   model    trim    bdy_style    hp hp_rpm   trq trq_rpm mpg_c mpg_h
   <chr> <chr>    <chr>   <chr>     <int>  <int> <int>   <int> <int> <int>
 1 Audi  R8       4.2 (M… coupe       430   7900   317    4500    11    20
 2 BMW   i8       Mega W… coupe       357   5800   420    3700    28    29
 3 Audi  RS 7     Quattr… hatchback   560   5700   516    1750    15    25
 4 Audi  S6       Premiu… sedan       450   5800   406    1400    18    27
 5 Audi  S7       Presti… hatchback   450   5800   406    1400    17    27
 6 Audi  S8       Base S… sedan       520   5800   481    1700    15    25
 7 BMW   6-Series 640 I … coupe       315   5800   330    1400    20    30
 8 BMW   M4       Base C… coupe       425   5500   406    1850    17    24
 9 BMW   M5       Base S… sedan       560   6000   500    1500    15    22
10 BMW   M6       Base C… coupe       560   6000   500    1500    15    22
# ℹ 37 more rows
# ℹ 5 more variables: trsmn <chr>, msrp <int>, ctry_origin <chr>,
#   year <dbl>, drivetrain <chr>
…
